Berikut Hasil Pengolahan Nilai
   Nilai    |    Frekuensi
    6              3          
    7              62          
    8              42          
    9              50          
    10              10          
